graph G {
    N1 [style = filled, fillcolor = deepskyblue];
    N2 [style = filled, fillcolor = deepskyblue];
    N3 [style = filled, fillcolor = deepskyblue];
    N4 [style = filled, fillcolor = deepskyblue];
    N5 [style = filled, fillcolor = deepskyblue];
    N6 [style = filled, fillcolor = deepskyblue];

    N1 -- N2 [style = dashed];
    N2 -- N3 [style = dashed];
    N3 -- N4 [style = dashed];
    N3 -- N6 [style = dashed];
    N5 -- N2 [style = dashed];
    rankdir = LR;
}
